{
  "questions": [
    {
      "questiontext": "Q1a. Single-select.",
      "type": "radio",
      "options": [
        "One",
        "Two",
        "Three",
        "Four",
        "Five",
        "Six"
      ],
    "other":"true",
    "NOTA":"true",
    "randomize":"true"
    },
    {
      "questiontext": "Q1b. Multi-select.",
      "type": "checkbox",
      "options": [
        "One",
        "Two",
        "Three",
        "Four Multi-Select",
        "Five",
        "Six"
      ],
      "other":"true",
      "NOTA":"true"
    },
    {
      "questiontext": "Q1a. OpenEnd Question",
      "type": "openend",
      "subtype":"number"
    },
    {
      "questiontext": "Q1a. Single-select. before grid radio",
      "type": "radio",
      "options": [
        "One",
        "Two",
        "Three",
        "Four",
        "Five",
        "Six"
      ],
      "other":"true"
    },
    {
      "questiontext": "Q1c. Row-wise",
      "type": "grid-radio",
      "direction": "row",
      "columns": [
        "One",
        "Two",
        "Three",
        "Four",
        "Five",
        "Six",
        "seven"
      ],
      "rows": [
        "January", 
        "Febuary",
        "March",
        "April",
        "May-row",
        "June"
      ],
      "other":"true"
    },
    {
      "questiontext": "Q2. Column-wise",
      "type": "grid-radio",
      "direction": "column",
      "columns": [
        "One",
        "Two",
        "Three",
        "Four",
        "Five",
        "Six"
      ],
      "rows": [
        "January", 
        "Febuary",
        "March",
        "April",
        "May",
        "June"
      ]
    },
    {
      "questiontext": "Q3. Checkbox Grid",
      "type": "grid-checkbox",
      "direction": "rowwise",
      "columns": [
        "One",
        "Two",
        "Three",
        "Four",
        "Five",
        "Six"
      ],
      "rows": [
        "January", 
        "Febuary",
        "March",
        "April",
        "May",
        "June"
      ]
    },
    {
      "questiontext": "Q4. Dropdown Grid",
      "type": "dropdown",
      "direction": "rowwise",
      "columns": [
        "One",
        "Two",
        "Three"
      ],
      "rows": [
        "January", 
        "Febuary",
        "March",
        "April",
        "May",
        "June"
      ],
      "options": ["Apple", "Mango", "Grape", "Banana"]
    },
    {
      "questiontext": "Q5. Row-wise Custom Grid",
      "type": "grid-custom",
      "direction": "rowwise",
      "columns": [
        "One",
        "Two",
        "Three"
      ],
      "rows": [
        {
          "rowtitle": "January",
          "rowtype": "radio"
        },
        {
          "rowtitle": "Febuary",
          "rowtype": "checkbox"
        },
        {
          "rowtitle": "March",
          "rowtype": "text"
        },
        {
          "rowtitle": "April",
          "rowtype": "number"
        },
        {
          "rowtitle": "May",
          "rowtype": "radio"
        },
        {
          "rowtitle": "June",
          "rowtype": "dropdown",
          "options": ["Apple", "Mango", "Grape", "Banana"]
        }
      ]
    },
    {
      "questiontext": "Q6. Column-wise Custom Grid",
      "type": "grid-custom",
      "direction": "columnwise",
      "columns": [
        {
          "coltitle": "One",
          "coltype": "checkbox"
        },
        {
          "coltitle": "Two",
          "coltype": "text"
        },
        {
          "coltitle": "Three",
          "coltype": "radio"
        },
        {
          "coltitle": "Four",
          "coltype": "number"
        },
        {
          "coltitle": "Five",
          "coltype": "dropdown",
          "options": ["Car", "bike", "scooty", "Jet"]
        },
        {
          "coltitle": "Six",
          "coltype": "dropdown",
          "options": ["Car1", "bike1", "scooty1", "Jet1"]
        }
      ],
      "rows": [
        "January", 
        "Febuary",
        "March",
        "April",
        "May",
        "June"
      ]
    },
    {
      "type": "thank-you"
    }
  ]

}